%YAML 1.1
%TAG !u! tag:unity3d.com,2011:
--- !u!74 &7400000
AnimationClip:
  m_ObjectHideFlags: 0
  m_PrefabParentObject: {fileID: 0}
  m_PrefabInternal: {fileID: 0}
  m_Name: BatDeath
  serializedVersion: 6
  m_Legacy: 0
  m_Compressed: 0
  m_UseHighQualityCurve: 1
  m_RotationCurves: []
  m_CompressedRotationCurves: []
  m_EulerCurves: []
  m_PositionCurves: []
  m_ScaleCurves: []
  m_FloatCurves: []
  m_PPtrCurves:
  - curve:
    - time: 0
      value: {fileID: 21300000, guid: a8f2f63a25bf655469019e5ff9a722b4, type: 3}
    - time: 0.05
      value: {fileID: 21300000, guid: 94aa7c2a3d57aea41b2a53aba41e0168, type: 3}
    - time: 0.1
      value: {fileID: 21300000, guid: 1dd35f8ddef94834f99e21d4e0920510, type: 3}
    - time: 0.15
      value: {fileID: 21300000, guid: 56750aa97d36261409ddb06f2493554e, type: 3}
    - time: 0.2
      value: {fileID: 21300000, guid: 7c5c84b49abe1354c81b0a756a4dc6fa, type: 3}
    - time: 0.25
      value: {fileID: 21300000, guid: 53f547bb6226d8240b76fe534aaac223, type: 3}
    - time: 0.3
      value: {fileID: 21300000, guid: af80bfe925d0956429fc1701ae549b8c, type: 3}
    - time: 0.35
      value: {fileID: 21300000, guid: 34c142197ced11f4d9bc25d6fcaef6fb, type: 3}
    attribute: m_Sprite
    path: 
    classID: 212
    script: {fileID: 0}
  m_SampleRate: 20
  m_WrapMode: 0
  m_Bounds:
    m_Center: {x: 0, y: 0, z: 0}
    m_Extent: {x: 0, y: 0, z: 0}
  m_ClipBindingConstant:
    genericBindings:
    - serializedVersion: 2
      path: 0
      attribute: 0
      script: {fileID: 0}
      typeID: 212
      customType: 23
      isPPtrCurve: 1
    pptrCurveMapping:
    - {fileID: 21300000, guid: a8f2f63a25bf655469019e5ff9a722b4, type: 3}
    - {fileID: 21300000, guid: 94aa7c2a3d57aea41b2a53aba41e0168, type: 3}
    - {fileID: 21300000, guid: 1dd35f8ddef94834f99e21d4e0920510, type: 3}
    - {fileID: 21300000, guid: 56750aa97d36261409ddb06f2493554e, type: 3}
    - {fileID: 21300000, guid: 7c5c84b49abe1354c81b0a756a4dc6fa, type: 3}
    - {fileID: 21300000, guid: 53f547bb6226d8240b76fe534aaac223, type: 3}
    - {fileID: 21300000, guid: af80bfe925d0956429fc1701ae549b8c, type: 3}
    - {fileID: 21300000, guid: 34c142197ced11f4d9bc25d6fcaef6fb, type: 3}
  m_AnimationClipSettings:
    serializedVersion: 2
    m_AdditiveReferencePoseClip: {fileID: 0}
    m_AdditiveReferencePoseTime: 0
    m_StartTime: 0
    m_StopTime: 0.4
    m_OrientationOffsetY: 0
    m_Level: 0
    m_CycleOffset: 0
    m_HasAdditiveReferencePose: 0
    m_LoopTime: 0
    m_LoopBlend: 0
    m_LoopBlendOrientation: 0
    m_LoopBlendPositionY: 0
    m_LoopBlendPositionXZ: 0
    m_KeepOriginalOrientation: 0
    m_KeepOriginalPositionY: 1
    m_KeepOriginalPositionXZ: 0
    m_HeightFromFeet: 0
    m_Mirror: 0
  m_EditorCurves: []
  m_EulerEditorCurves: []
  m_HasGenericRootTransform: 0
  m_HasMotionFloatCurves: 0
  m_GenerateMotionCurves: 0
  m_Events: []
