%YAML 1.1
%TAG !u! tag:unity3d.com,2011:
--- !u!221 &22100000
AnimatorOverrideController:
  m_ObjectHideFlags: 0
  m_PrefabParentObject: {fileID: 0}
  m_PrefabInternal: {fileID: 0}
  m_Name: Bomber
  m_Controller: {fileID: 9100000, guid: 9733d713e4ea8f6469216be1df71f905, type: 2}
  m_Clips:
  - m_OriginalClip: {fileID: 7400000, guid: 9daef0cd97dc8f64a82c0766efbf7df0, type: 2}
    m_OverrideClip: {fileID: 7400000, guid: b90ce8e266cb8d54791f920357c322c6, type: 2}
  - m_OriginalClip: {fileID: 7400000, guid: 1421a08865241e74696f975512ecdc16, type: 2}
    m_OverrideClip: {fileID: 7400000, guid: ad8786bd687b2cf49a217467d2bab1bd, type: 2}
  - m_OriginalClip: {fileID: 7400000, guid: 448dc9050b6a41c429423d882b34be50, type: 2}
    m_OverrideClip: {fileID: 7400000, guid: e669f70339d15354882a9f36e0bdf689, type: 2}
