%YAML 1.1
%TAG !u! tag:unity3d.com,2011:
--- !u!74 &7400000
AnimationClip:
  m_ObjectHideFlags: 0
  m_PrefabParentObject: {fileID: 0}
  m_PrefabInternal: {fileID: 0}
  m_Name: OnagerAttack
  serializedVersion: 6
  m_Legacy: 0
  m_Compressed: 0
  m_UseHighQualityCurve: 1
  m_RotationCurves: []
  m_CompressedRotationCurves: []
  m_EulerCurves: []
  m_PositionCurves: []
  m_ScaleCurves: []
  m_FloatCurves: []
  m_PPtrCurves:
  - curve:
    - time: 0
      value: {fileID: 21300000, guid: 92465b3410f371e47aae0c3bb862cafe, type: 3}
    - time: 0.05
      value: {fileID: 21300000, guid: f243ee35653ca2246b9da00615f23bbf, type: 3}
    - time: 0.1
      value: {fileID: 21300000, guid: 99102b1574e660a448edfaa84a2d70de, type: 3}
    - time: 0.15
      value: {fileID: 21300000, guid: 0635745c944bc8e4eaf2c5c4749deba6, type: 3}
    - time: 0.2
      value: {fileID: 21300000, guid: 25a3f3ad1e011bb44b93a5642dbab8ab, type: 3}
    - time: 0.25
      value: {fileID: 21300000, guid: 18c69e1a5ff8cca40a693b1517c109f5, type: 3}
    attribute: m_Sprite
    path: 
    classID: 212
    script: {fileID: 0}
  m_SampleRate: 20
  m_WrapMode: 0
  m_Bounds:
    m_Center: {x: 0, y: 0, z: 0}
    m_Extent: {x: 0, y: 0, z: 0}
  m_ClipBindingConstant:
    genericBindings:
    - serializedVersion: 2
      path: 0
      attribute: 0
      script: {fileID: 0}
      typeID: 212
      customType: 23
      isPPtrCurve: 1
    pptrCurveMapping:
    - {fileID: 21300000, guid: 92465b3410f371e47aae0c3bb862cafe, type: 3}
    - {fileID: 21300000, guid: f243ee35653ca2246b9da00615f23bbf, type: 3}
    - {fileID: 21300000, guid: 99102b1574e660a448edfaa84a2d70de, type: 3}
    - {fileID: 21300000, guid: 0635745c944bc8e4eaf2c5c4749deba6, type: 3}
    - {fileID: 21300000, guid: 25a3f3ad1e011bb44b93a5642dbab8ab, type: 3}
    - {fileID: 21300000, guid: 18c69e1a5ff8cca40a693b1517c109f5, type: 3}
  m_AnimationClipSettings:
    serializedVersion: 2
    m_AdditiveReferencePoseClip: {fileID: 0}
    m_AdditiveReferencePoseTime: 0
    m_StartTime: 0
    m_StopTime: 0.3
    m_OrientationOffsetY: 0
    m_Level: 0
    m_CycleOffset: 0
    m_HasAdditiveReferencePose: 0
    m_LoopTime: 1
    m_LoopBlend: 0
    m_LoopBlendOrientation: 0
    m_LoopBlendPositionY: 0
    m_LoopBlendPositionXZ: 0
    m_KeepOriginalOrientation: 0
    m_KeepOriginalPositionY: 1
    m_KeepOriginalPositionXZ: 0
    m_HeightFromFeet: 0
    m_Mirror: 0
  m_EditorCurves: []
  m_EulerEditorCurves: []
  m_HasGenericRootTransform: 0
  m_HasMotionFloatCurves: 0
  m_GenerateMotionCurves: 0
  m_Events: []
